{ "compressionlevel":-1,
 "editorsettings":
    {
     "export":
        {
         "target":"."
        }
    },
 "height":15,
 "infinite":false,
 "layers":[
        {
         "data":[0, 0, 0, 0, 0, 0, 0, 0, 0, 0, 0, 0, 0, 0, 0, 0, 0, 0, 0, 0, 0, 0, 0, 0, 0, 0, 0, 0, 0, 0, 0, 0, 0, 0, 0, 0, 0, 0, 0, 0, 0, 0, 0, 0, 0, 0, 0, 0, 0, 0, 0, 0, 0, 0, 0, 0, 0, 0, 0, 0, 0, 0, 0, 0, 0, 0, 0, 0, 0, 0, 0, 0, 0, 0, 0, 0, 0, 0, 0, 0, 0, 0, 0, 0, 0, 0, 0, 0, 0, 0, 0, 0, 0, 0, 0, 0, 0, 0, 0, 0, 0, 0, 0, 0, 0, 0, 0, 0, 0, 0, 0, 0, 0, 0, 0, 0, 0, 0, 0, 0, 0, 0, 0, 0, 0, 0, 0, 0, 0, 0, 0, 0, 0, 0, 0, 0, 0, 0, 0, 0, 0, 0, 0, 0, 0, 0, 0, 0, 0, 0, 0, 0, 0, 0, 0, 0, 0, 0, 0, 0, 0, 0, 0, 0, 0, 0, 0, 0, 0, 0, 0, 0, 0, 0, 0, 0, 0, 0, 0, 0, 0, 0, 0, 0, 0, 0, 0, 0, 0, 0, 0, 0, 0, 0, 0, 0, 0, 0, 0, 0, 0, 0, 0, 0, 0, 0, 0, 0, 0, 0, 0, 0, 0, 0, 0, 0, 0, 0, 0, 0, 0, 0, 0, 0, 0, 0, 0, 0, 0, 0, 0, 0, 0, 0, 0, 0, 0, 0, 0, 0, 0, 0, 0, 0, 0, 0, 0, 0, 0, 0, 0, 0, 0, 0, 0, 0, 0, 0, 0, 0, 0, 0, 0, 0, 0, 0, 0, 0, 0, 0, 0, 0, 0, 0, 0, 0, 0, 0, 0, 0, 0, 0, 0, 0, 0, 0, 0, 0, 0, 0, 0, 0, 0, 0, 0, 0, 0, 0, 0, 0, 0, 0, 0, 0, 0, 0, 0, 0, 0, 0, 0, 0, 0, 0, 0, 0, 0, 0, 0, 0, 0, 0, 0, 0, 0, 0, 0, 0, 0, 0, 0, 0, 0, 0, 0, 0, 0, 0, 0, 0, 0, 0, 0, 0, 0, 0, 0, 0, 0, 0, 0, 0, 0, 0, 0, 0, 0, 0, 0, 0, 0, 0, 0, 0, 0, 0, 0, 0, 0, 0, 0, 0, 0, 0, 0, 0, 0, 0, 0, 0, 0, 0, 0, 0, 0, 0, 0, 0, 0, 0, 0, 0, 0, 0, 0, 0, 0, 0, 0, 0, 0, 0, 0, 0, 0, 0, 0, 0, 0, 0, 0, 0, 0, 0, 0, 0, 0, 0, 0, 0, 0, 0, 0, 0, 0, 0, 0, 0, 0, 0, 0, 0, 0, 0, 0, 0, 0, 0, 0, 0, 0, 0, 0, 0, 0, 0, 0, 0, 0, 0, 0, 0, 0, 0, 0, 0, 0, 0, 0, 0, 0, 0, 0, 0, 0, 0, 0, 0, 0, 0, 0, 0, 0, 0, 0, 0, 0, 0, 0, 0, 0, 0, 0, 0, 0, 0, 0, 0, 0, 0, 0, 0, 0, 0, 0, 0, 0, 0, 0, 0, 0, 0, 0, 0, 0, 0, 0, 0, 0, 0, 0, 0, 0, 0, 0, 0, 0, 0, 0, 0, 0, 0, 0, 0, 0, 0, 0, 0, 0, 0, 0, 0, 0, 0, 0, 0, 0, 0, 0, 0, 0, 0, 0, 0, 0, 0, 0, 0, 0, 0, 0, 0, 0, 0, 0, 0, 0, 0, 0, 0, 0, 0, 0, 0, 0, 0, 0, 0, 0, 0, 0, 0, 0, 0, 0, 0, 0, 0, 0, 0, 0, 0, 0, 0, 0, 0, 0, 0, 0, 0, 0, 0, 0, 0, 0, 0, 0, 0, 0, 0, 0, 0, 0, 0, 0, 0, 0, 0, 0, 0, 0, 0, 0, 0, 0, 0, 0, 0, 0, 0, 0, 0, 0, 0, 0, 0, 0, 0, 0, 0, 0, 0, 0, 0, 0, 0, 0, 0, 0, 0, 0, 0, 0, 0, 0, 0, 0, 0, 0, 0, 0, 0, 0, 0, 0, 0, 0, 0, 0, 0, 0, 0, 0, 0, 0, 0, 0, 0, 0, 0, 0, 0, 0, 0, 0, 0, 0, 0, 0, 0, 0, 0, 0, 0, 0, 0, 0, 0, 0, 0, 0, 0, 0, 0, 0, 0, 0, 0, 0, 0, 0, 0, 0, 0, 0, 0, 0, 0, 0, 0, 0, 0, 0, 0, 0, 0, 0, 0, 0, 0, 0, 0, 0, 0, 0, 0, 0, 0, 0, 0, 0, 0, 0, 0, 0, 0, 0, 0, 0, 0, 0, 0, 0, 0, 0, 0, 0, 0, 0, 0, 0, 0, 0, 0, 0, 0, 0, 0, 0, 0, 0, 0, 0, 0, 0, 0, 0, 0, 0, 0, 0, 0, 0, 0, 0, 0, 0, 0, 0, 0, 0, 0, 0, 0, 0, 0, 0, 0, 0, 0, 0, 0, 0, 0, 0, 0, 0, 0, 0, 0, 0, 0, 0, 0, 0, 0, 0, 0, 0, 0, 0, 0, 0, 0, 0, 0, 0, 0, 0, 0, 0, 0, 0, 0, 0, 0, 0, 0, 0, 0, 0, 0, 0, 0, 0, 0, 0, 0, 0, 0, 0, 0, 0, 0, 0, 0, 0, 0, 0, 0, 0, 0, 0, 0, 0, 0, 0, 0, 0, 0, 0, 0, 0, 0, 0, 0, 0, 0, 0, 0, 0, 0, 0, 0, 0, 0, 0, 0, 0, 0, 0, 0, 0, 0, 0, 0, 0, 0, 0, 0, 0, 0, 0, 0, 0, 0, 0, 0, 0, 0, 0, 0, 0, 0, 0, 0, 0, 0, 0, 0, 0, 0, 0, 0, 0, 0, 0, 0, 0, 0, 0, 0, 0, 0, 0, 0, 0, 0, 0, 0, 0, 0, 0, 0, 0, 0, 0, 0, 0, 0, 0, 0, 0, 0, 0, 0, 0, 0, 0, 0, 0, 0, 0, 0, 0, 0, 0, 0, 0, 0, 0, 0, 0, 0, 0, 0, 0, 0, 0, 0, 0, 0, 0, 0, 0, 0, 0, 0, 0, 0, 0, 0, 0, 0, 0, 0, 0, 0, 0, 0, 0, 0, 0, 0, 0, 0, 0, 0, 0, 0, 0, 0, 0, 0, 0, 0, 0, 0, 0, 0, 0, 0, 0, 0, 0, 0, 0, 0, 0, 0, 0, 0, 0, 0, 0, 0, 0, 0, 0, 0, 0, 0, 0, 0, 0, 0, 0, 0, 0, 0, 0, 0, 0, 0, 0, 0, 0, 0, 0, 0, 0, 0, 0, 0, 0, 0, 0, 0, 0, 0, 0, 0, 0, 0, 0, 0, 0, 0, 0, 0, 0, 0, 0, 0, 0, 0, 0, 0, 0, 0, 0, 0, 0, 0, 0, 0, 0, 0, 0, 0, 0, 0, 0, 0, 0, 0, 0, 0, 0, 0, 0, 0, 0, 0, 0, 0, 0, 0, 0, 0, 0, 0, 0, 0, 0, 0, 0, 0, 0, 0, 0, 0, 0, 0, 0, 0, 0, 0, 0, 0, 0, 0, 0, 0, 0, 0, 0, 0, 0, 0, 0, 0, 0, 0, 0, 0, 0, 0, 0, 0, 0, 0, 0, 0, 0, 0, 0, 0, 0, 0, 0, 0, 0, 0, 0, 0, 0, 0, 0, 0, 0, 0, 0, 0, 0, 0, 0, 0, 0, 0, 0, 0, 0, 0, 0, 0, 0, 0, 0, 0, 0, 0, 0, 0, 0, 0, 0, 0, 0, 0, 0, 0, 0, 0, 0, 0, 0, 0, 0, 0, 0, 0, 0, 0, 0, 0, 0, 0, 0, 0, 0, 0, 0, 0, 0, 0, 0, 0, 0, 0, 0, 0, 0, 0, 0, 0, 0, 0, 0, 0, 0, 0, 0, 0, 0, 0, 0, 0, 0, 0, 0, 0, 0, 0, 0, 0, 0, 0, 0, 0, 0, 0, 0, 0, 0, 0, 0, 0, 0, 0, 0, 0, 0, 0, 0, 0, 0, 0, 0, 0, 0, 0, 0, 0, 0, 0, 0, 0, 0, 0, 0, 0, 0, 0, 0, 0, 0, 0, 0, 0, 0, 0, 0, 0, 0, 0, 0, 0, 0, 0, 0, 0, 0, 0, 0, 0, 0, 0, 0, 0, 0, 0, 0, 0, 0, 0, 0, 0, 0, 0, 0, 0, 0, 0, 0, 0, 0, 0, 0, 0, 0, 0, 0, 0, 0, 0, 0, 0, 0, 0, 0, 0, 0, 0, 0, 0, 0, 0, 0, 0, 0, 0, 0, 0, 0, 0, 0, 0, 0, 0, 0, 0, 0, 0, 0, 0, 0, 0, 0, 0, 0, 0, 0, 0, 0, 0, 0, 0, 0, 0, 0, 0, 0, 0, 0, 0, 0, 0, 0, 0, 0, 0, 0, 0, 0, 0, 0, 0, 0, 0, 0, 0, 0, 0, 0, 0, 0, 0, 0, 0, 0, 0, 0, 0, 0, 0, 0, 0, 0, 0, 0, 0, 0, 0, 0, 0, 0, 0, 0, 0, 0, 0, 0, 0, 0, 0, 0, 0, 0, 0, 0, 0, 0, 0, 0, 0, 0, 0, 0, 0, 0, 0, 0, 0, 0, 0, 0, 0, 0, 0, 0, 0, 0, 0, 0, 0, 0, 0, 0, 0, 0, 0, 0, 0, 0, 0, 0, 0, 0, 0, 0, 0, 0, 0, 0, 0, 0, 0, 0, 0, 0, 0, 0, 0, 0, 0, 0, 0, 0, 0, 0, 0, 0, 0, 0, 0, 0, 0, 0, 0, 0, 0, 0, 0, 0, 0, 0, 0, 0, 0, 0, 0, 0, 0, 0, 0, 0, 0, 0, 0, 0, 0, 0, 0, 0, 0, 0, 0, 0, 0, 0, 0, 0, 0, 0, 0, 0, 0, 0, 0, 0, 0, 0, 0, 0, 0, 0, 0, 0, 0, 0, 0, 0, 0, 0, 0, 0, 0, 0, 0, 0, 0, 0, 0, 0, 0, 0, 0, 0, 0, 0, 0, 0, 0, 0, 0, 0, 0, 0, 0, 0, 0, 0, 0, 0, 0, 0, 0, 0, 0, 0, 0, 0, 0, 0, 0, 0, 0, 0, 0, 0, 0, 0, 0, 0, 0, 0, 0, 0, 0, 0, 0, 0, 0, 0, 0, 0, 0, 0, 0, 0, 0, 0, 0, 0, 0, 0, 0, 0, 0, 0, 0, 0, 0, 0, 0, 0, 0, 0, 0, 0, 0, 0, 0, 0, 0, 0, 0, 0, 0, 0, 0, 0, 0, 0, 0, 0, 0, 0, 0, 0, 0, 0, 0, 0, 0, 0, 0, 0, 0, 0, 0, 0, 0, 0, 0, 0, 0, 0, 0, 0, 0, 0, 0, 0, 0, 0, 0, 0, 0, 0, 0, 0, 0, 0, 0, 0, 0, 0, 0, 0, 0, 0, 0, 0, 0, 0, 0, 0, 0, 0, 0, 0, 0, 0, 0, 0, 0, 0, 0, 0, 0, 0, 0, 0, 0, 0, 0, 0, 0, 0, 0, 0, 0, 0, 0, 0, 0, 0, 0, 0, 0, 0, 0, 0, 0, 0, 0, 0, 0, 0, 0, 0, 0, 0, 0, 0, 0, 0, 0, 0, 0, 0, 0, 0, 0, 0, 0, 0, 0, 0, 0, 0, 0, 0, 0, 0, 0, 0, 0, 0, 0, 0, 0, 0, 0, 0, 0, 0, 0, 0, 0, 0, 0, 0, 0, 0, 0, 0, 0, 0, 0, 0, 0, 0, 0, 0, 0, 0, 0, 0, 0, 0, 0, 0, 0, 0, 0, 0, 0, 0, 0, 0, 0, 0, 0, 0, 0, 0, 0, 0, 0, 0, 0, 0, 0, 0, 0, 0, 0, 0, 0, 0, 0, 0, 0, 0, 0, 0, 0, 0, 0, 0, 0, 0, 0, 0, 0, 0, 0, 0, 0, 0, 0, 0, 0, 0, 0, 0, 0, 0, 0, 0, 0, 0, 0, 0, 0, 0, 0, 0, 0, 0, 0, 0, 0, 0, 0, 0, 0, 0, 0, 0, 0, 0, 0, 0, 0, 0, 0, 0, 0, 0, 0, 0, 0, 0, 0, 0, 0, 0, 0, 0, 0, 0, 0, 0, 0, 0, 0, 0, 0, 0, 0, 0, 0, 0, 0, 0, 0, 0, 0, 0, 0, 0, 0, 0, 0, 0, 0, 0, 0, 0, 0, 0, 0, 0, 0, 0, 0, 0, 0, 0, 0, 0, 0, 0, 0, 0, 0, 0, 0, 0, 0, 0, 0, 0, 0, 0, 0, 0, 0, 0, 0, 0, 0, 0, 0, 0, 0, 0, 0, 0, 0, 0, 0, 0, 0, 0, 0, 0, 0, 0, 0, 0, 0, 0, 0, 0, 0, 0, 0, 0, 0, 0, 0, 0, 0, 0, 0, 0, 0, 0, 0, 0, 0, 0, 0, 0, 0, 0, 0, 0, 0, 0, 0, 0, 0, 0, 0, 0, 0, 0, 0, 0, 0, 0, 0, 0, 0, 0, 0, 0, 0, 0, 0, 0, 0, 0, 0, 0, 0, 0, 0, 0, 0, 0, 0, 0, 0, 0, 0, 0, 0, 0, 0, 0, 0, 0, 0, 0, 0, 0, 0, 0, 0, 0, 0, 0, 0, 0, 0, 0, 0, 0, 0, 0, 0, 0, 0, 0, 0, 0, 0, 0, 0, 0, 0, 0, 0, 0, 0, 0, 0, 0, 0, 0, 0, 0, 0, 0, 0, 0, 0, 0, 0, 0, 0, 0, 0, 0, 0, 0, 0, 0, 0, 0, 0, 0, 0, 0, 0, 0, 0, 0, 0, 0, 0, 0, 0, 0, 0, 0, 0, 0, 0, 0, 0, 0, 0, 0, 0, 0, 0, 0, 0, 0, 0, 0, 0, 0, 0, 0, 0, 0, 0, 0, 0, 0, 0, 0, 0, 0, 0, 0, 0, 0, 0, 0, 0, 0, 0, 0, 0, 0, 0, 0, 0, 0, 0, 0, 0, 0, 0, 0, 0, 0, 0, 0, 0, 0, 0, 0, 0, 0, 0, 0, 0, 0, 0, 0, 0, 0, 0, 0, 0, 0, 0, 0, 0, 0, 0, 0, 0, 0, 0, 0, 0, 0, 0, 0, 0, 0, 0, 0, 0, 0, 0, 0, 0, 0, 0, 0, 0, 0, 0, 0, 0, 0, 0, 0, 0, 0, 0, 0, 0, 0, 0, 0, 0, 0, 0, 0, 0, 0, 0, 0, 0, 0, 0, 0, 0, 0, 0, 0, 0, 0, 0, 0, 0, 0, 0, 0, 0, 0, 0, 0, 0, 0, 0, 0, 0, 0, 0, 0, 0, 0, 0, 0, 0, 0, 0, 0, 0, 0, 0, 0, 0, 0, 0, 0, 0, 0, 0, 0, 0, 0, 0, 0, 0, 0, 0, 0, 0, 0, 0, 0, 0, 0, 0, 0, 0, 0, 0, 0, 0, 0, 0, 0, 0, 0, 0, 0, 0, 0, 0, 0, 0, 0, 0, 0, 0, 0, 0, 0, 0, 0, 0, 0, 0, 0, 0, 0, 0, 0, 0, 0, 0, 0, 0, 0, 0, 0, 0, 0, 0, 0, 0, 0, 0, 0, 0, 0, 0, 0, 0, 0, 0, 0, 0, 0, 0, 0, 0, 0, 0, 0, 0, 0, 0, 0, 0, 0, 0, 0, 0, 0, 0, 0, 0, 0, 0, 0, 0, 0, 0, 0, 0, 0, 0, 0, 0, 0, 0, 0, 0, 0, 0, 0, 0, 0, 0, 0, 0, 0, 0, 0, 0, 0, 0, 0, 0, 0, 0, 0, 0, 0, 0, 0, 0, 0, 0, 0, 0, 0, 0, 0, 0, 0, 0, 0, 0, 0, 0, 0, 0, 0, 0, 0, 0, 0, 0, 0, 0, 0, 0, 0, 0, 0, 0, 0, 0, 0, 0, 0, 0, 0, 0, 0, 0, 0, 0, 0, 0, 0, 0, 0, 0, 0, 0, 0, 0, 0, 0, 0, 0, 0, 0, 0, 0, 0, 0, 0, 0, 0, 0, 0, 0, 0, 0, 0, 0, 0, 0, 0, 0, 0, 0, 0, 0, 0, 0, 0, 0, 0, 0, 0, 0, 0, 0, 0, 0, 0, 0, 0, 0, 0, 0, 0, 0, 0, 0, 0, 0, 0, 0, 0, 0, 0, 0, 0, 0, 0, 0, 0, 0, 0, 0, 0, 0, 0, 0, 0, 0, 0, 0, 0, 0, 0, 0, 0, 0, 0, 0, 0, 0, 0, 0, 0, 0, 0, 0, 0, 0, 0, 0, 0, 0, 0, 0, 0, 0, 0, 0, 0, 0, 0, 0, 0, 0, 0, 0, 0, 0, 0, 0, 0, 0, 0, 0, 0, 0, 0, 0, 0, 0, 0, 0, 0, 0, 0, 0, 0, 0, 0, 0, 0, 0, 0, 0, 0, 0, 0, 0, 0, 0, 0, 0, 0, 0, 0, 0, 0, 0, 0, 0, 0, 0, 0, 0, 0, 0, 0, 0, 0, 0, 0, 0, 0, 0, 0, 0, 0, 0, 0, 0, 0, 0, 0, 0, 0, 0, 0, 0, 0, 0, 0, 0, 0, 0, 0, 0, 0, 0, 0, 0, 0, 0, 0, 0, 0, 0, 0, 0, 0, 0, 0, 0, 0, 0, 0, 0, 0, 0, 0, 0, 0, 0, 0, 0, 0, 0, 0, 0, 0, 0, 0, 0, 0, 0, 0, 0, 0, 0, 0, 0, 0, 0, 0, 0, 0, 0, 0, 0, 0, 0, 0, 0, 0, 0, 0, 0, 0, 0, 0, 0, 0, 0, 0, 0, 0, 0, 0, 0, 0, 0, 0, 0, 0, 0, 0, 0, 0, 0, 0, 0, 0, 0, 0, 0, 0, 0, 0, 0, 0, 0, 0, 0, 0, 0, 0, 0, 0, 0, 0, 0, 0, 0, 0, 0, 0, 0, 0, 0, 0, 0, 0, 0, 0, 0, 0, 0, 0, 0, 0, 0, 0, 0, 0, 0, 0, 0, 0, 0, 0, 0, 0, 0, 0, 0, 0, 0, 0, 0, 0, 0, 0, 0, 0, 0, 0, 0, 0, 0, 0, 0, 0, 0, 0, 0, 0, 0, 0, 0, 0, 0, 0, 0, 0, 0, 0, 0, 0, 0, 0, 0, 0, 0, 0, 0, 0, 0, 0, 0, 0, 0, 0, 0, 0, 0, 0, 0, 0, 0, 0, 0, 0, 0, 0, 0, 0, 0, 0, 0, 0, 0, 0, 0, 0, 0, 0, 0, 0, 0, 0, 0, 0, 0, 0, 0, 0, 0, 0, 0, 0, 0, 0, 0, 0, 0, 0, 0, 0, 0, 0, 0, 0, 0, 0, 0, 0, 0, 0, 0, 0, 0, 0, 0, 0, 0, 0, 0, 0, 0, 0, 0, 0, 0, 0, 0, 0, 0, 0, 0, 0, 0, 0, 0, 0, 0, 0, 0, 0, 0, 0, 0, 0, 0, 0, 0, 0, 0, 0, 0, 0, 0, 0, 0, 0, 0],
         "height":15,
         "id":5,
         "name":"Ground",
         "opacity":1,
         "type":"tilelayer",
         "visible":true,
         "width":200,
         "x":0,
         "y":0
        }, 
        {
         "data":[13, 14, 15, 16, 13, 14, 15, 16, 13, 14, 15, 16, 13, 14, 15, 16, 13, 14, 15, 16, 13, 14, 15, 16, 13, 14, 15, 16, 13, 14, 15, 16, 13, 14, 15, 16, 13, 14, 15, 16, 13, 14, 15, 16, 13, 14, 15, 16, 13, 14, 15, 16, 13, 14, 15, 16, 13, 14, 15, 16, 13, 14, 15, 16, 13, 14, 15, 16, 13, 14, 15, 16, 13, 14, 15, 16, 13, 14, 15, 16, 13, 14, 15, 16, 13, 14, 15, 16, 13, 14, 15, 16, 13, 14, 15, 16, 13, 14, 15, 16, 13, 14, 15, 16, 13, 14, 15, 16, 13, 14, 15, 16, 13, 14, 15, 16, 13, 14, 15, 16, 13, 14, 15, 16, 13, 14, 15, 16, 13, 14, 15, 16, 13, 14, 15, 16, 13, 14, 15, 16, 13, 14, 15, 16, 13, 14, 15, 16, 13, 14, 15, 16, 13, 14, 15, 16, 13, 14, 15, 16, 13, 14, 15, 16, 13, 14, 15, 16, 13, 14, 15, 16, 13, 14, 15, 16, 13, 14, 15, 16, 13, 14, 15, 16, 13, 14, 15, 16, 13, 14, 15, 16, 13, 14, 15, 16, 13, 14, 15, 16, 33, 34, 35, 36, 33, 34, 35, 36, 33, 34, 35, 36, 33, 34, 35, 36, 33, 34, 35, 36, 33, 34, 35, 36, 33, 34, 35, 36, 33, 34, 35, 36, 33, 34, 35, 36, 33, 34, 35, 36, 33, 34, 35, 36, 33, 34, 35, 36, 33, 34, 35, 36, 33, 34, 35, 36, 33, 34, 35, 36, 33, 34, 35, 36, 33, 34, 35, 36, 33, 34, 35, 36, 33, 34, 35, 36, 33, 34, 35, 36, 33, 34, 35, 36, 33, 34, 35, 36, 33, 34, 35, 36, 33, 34, 35, 36, 33, 34, 35, 36, 33, 34, 35, 36, 33, 34, 35, 36, 33, 34, 35, 36, 33, 34, 35, 36, 33, 34, 35, 36, 33, 34, 35, 36, 33, 34, 35, 36, 33, 34, 35, 36, 33, 34, 35, 36, 33, 34, 35, 36, 33, 34, 35, 36, 33, 34, 35, 36, 33, 34, 35, 36, 33, 34, 35, 36, 33, 34, 35, 36, 33, 34, 35, 36, 33, 34, 35, 36, 33, 34, 35, 36, 33, 34, 35, 36, 33, 34, 35, 36, 33, 34, 35, 36, 33, 34, 35, 36, 33, 34, 35, 36, 33, 34, 35, 36, 33, 34, 35, 36, 53, 54, 55, 56, 53, 54, 55, 56, 53, 54, 55, 56, 53, 54, 55, 56, 53, 54, 55, 56, 53, 54, 55, 56, 53, 54, 55, 56, 53, 54, 55, 56, 53, 54, 55, 56, 53, 54, 55, 56, 53, 54, 55, 56, 53, 54, 55, 56, 53, 54, 55, 56, 53, 54, 55, 56, 53, 54, 55, 56, 53, 54, 55, 56, 53, 54, 55, 56, 53, 54, 55, 56, 53, 54, 55, 56, 53, 54, 55, 56, 53, 54, 55, 56, 53, 54, 55, 56, 53, 54, 55, 56, 53, 54, 55, 56, 53, 54, 55, 56, 53, 54, 55, 56, 53, 54, 55, 56, 53, 54, 55, 56, 53, 54, 55, 56, 53, 54, 55, 56, 53, 54, 55, 56, 53, 54, 55, 56, 53, 54, 55, 56, 53, 54, 55, 56, 53, 54, 55, 56, 53, 54, 55, 56, 53, 54, 55, 56, 53, 54, 55, 56, 53, 54, 55, 56, 53, 54, 55, 56, 53, 54, 55, 56, 53, 54, 55, 56, 53, 54, 55, 56, 53, 54, 55, 56, 53, 54, 55, 56, 53, 54, 55, 56, 53, 54, 55, 56, 53, 54, 55, 56, 53, 54, 55, 56, 53, 54, 55, 56, 73, 74, 75, 76, 73, 74, 75, 76, 73, 74, 75, 76, 73, 74, 75, 76, 73, 74, 75, 76, 73, 74, 75, 76, 73, 74, 75, 76, 73, 74, 75, 76, 73, 74, 75, 76, 73, 74, 75, 76, 73, 74, 75, 76, 73, 74, 75, 76, 73, 74, 75, 76, 73, 74, 75, 76, 73, 74, 75, 76, 73, 74, 75, 76, 73, 74, 75, 76, 73, 74, 75, 76, 73, 74, 75, 76, 73, 74, 75, 76, 73, 74, 75, 76, 73, 74, 75, 76, 73, 74, 75, 76, 73, 74, 75, 76, 73, 74, 75, 76, 73, 74, 75, 76, 73, 74, 75, 76, 73, 74, 75, 76, 73, 74, 75, 76, 73, 74, 75, 76, 73, 74, 75, 76, 73, 74, 75, 76, 73, 74, 75, 76, 73, 74, 75, 76, 73, 74, 75, 76, 73, 74, 75, 76, 73, 74, 75, 76, 73, 74, 75, 76, 73, 74, 75, 76, 73, 74, 75, 76, 73, 74, 75, 76, 73, 74, 75, 76, 73, 74, 75, 76, 73, 74, 75, 76, 73, 74, 75, 76, 73, 74, 75, 76, 73, 74, 75, 76, 73, 74, 75, 76, 73, 74, 75, 76, 73, 74, 75, 76, 13, 14, 15, 16, 13, 14, 15, 16, 13, 14, 15, 16, 13, 14, 15, 16, 13, 14, 15, 16, 13, 14, 15, 16, 13, 14, 15, 16, 13, 14, 15, 16, 13, 14, 15, 16, 13, 14, 15, 16, 13, 14, 15, 16, 13, 14, 15, 16, 13, 14, 15, 16, 13, 14, 15, 16, 13, 14, 15, 16, 13, 14, 15, 16, 13, 14, 15, 16, 13, 14, 15, 16, 13, 14, 15, 16, 13, 14, 15, 16, 13, 14, 15, 16, 13, 14, 15, 16, 13, 14, 15, 16, 13, 14, 15, 16, 13, 14, 15, 16, 13, 14, 15, 16, 13, 14, 15, 16, 13, 14, 15, 16, 13, 14, 15, 16, 13, 14, 15, 16, 13, 14, 15, 16, 13, 14, 15, 16, 13, 14, 15, 16, 13, 14, 15, 16, 13, 14, 15, 16, 13, 14, 15, 16, 13, 14, 15, 16, 13, 14, 15, 16, 13, 14, 15, 16, 13, 14, 15, 16, 13, 14, 15, 16, 13, 14, 15, 16, 13, 14, 15, 16, 13, 14, 15, 16, 13, 14, 15, 16, 13, 14, 15, 16, 13, 14, 15, 16, 13, 14, 15, 16, 13, 14, 15, 16, 13, 14, 15, 16, 33, 34, 35, 36, 33, 34, 35, 36, 33, 34, 35, 36, 33, 34, 35, 36, 33, 34, 35, 36, 33, 34, 35, 36, 33, 34, 35, 36, 33, 34, 35, 36, 33, 34, 35, 36, 33, 34, 35, 36, 33, 34, 35, 36, 33, 34, 35, 36, 33, 34, 35, 36, 33, 34, 35, 36, 33, 34, 35, 36, 33, 34, 35, 36, 33, 34, 35, 36, 33, 34, 35, 36, 33, 34, 35, 36, 33, 34, 35, 36, 33, 34, 35, 36, 33, 34, 35, 36, 33, 34, 35, 36, 33, 34, 35, 36, 33, 34, 35, 36, 33, 34, 35, 36, 33, 34, 35, 36, 33, 34, 35, 36, 33, 34, 35, 36, 33, 34, 35, 36, 33, 34, 35, 36, 33, 34, 35, 36, 33, 34, 35, 36, 33, 34, 35, 36, 33, 34, 35, 36, 33, 34, 35, 36, 33, 34, 35, 36, 33, 34, 35, 36, 33, 34, 35, 36, 33, 34, 35, 36, 33, 34, 35, 36, 33, 34, 35, 36, 33, 34, 35, 36, 33, 34, 35, 36, 33, 34, 35, 36, 33, 34, 35, 36, 33, 34, 35, 36, 33, 34, 35, 36, 33, 34, 35, 36, 33, 34, 35, 36, 53, 54, 55, 56, 53, 54, 55, 56, 53, 54, 55, 56, 53, 54, 55, 56, 53, 54, 55, 56, 53, 54, 55, 56, 53, 54, 55, 56, 53, 54, 55, 56, 53, 54, 55, 56, 53, 54, 55, 56, 53, 54, 55, 56, 53, 54, 55, 56, 53, 54, 55, 56, 53, 54, 55, 56, 53, 54, 55, 56, 53, 54, 55, 56, 53, 54, 55, 56, 53, 54, 55, 56, 53, 54, 55, 56, 53, 54, 55, 56, 53, 54, 55, 56, 53, 54, 55, 56, 53, 54, 55, 56, 53, 54, 55, 56, 53, 54, 55, 56, 53, 54, 55, 56, 53, 54, 55, 56, 53, 54, 55, 56, 53, 54, 55, 56, 53, 54, 55, 56, 53, 54, 55, 56, 53, 54, 55, 56, 53, 54, 55, 56, 53, 54, 55, 56, 53, 54, 55, 56, 53, 54, 55, 56, 53, 54, 55, 56, 53, 54, 55, 56, 53, 54, 55, 56, 53, 54, 55, 56, 53, 54, 55, 56, 53, 54, 55, 56, 53, 54, 55, 56, 53, 54, 55, 56, 53, 54, 55, 56, 53, 54, 55, 56, 53, 54, 55, 56, 53, 54, 55, 56, 53, 54, 55, 56, 53, 54, 55, 56, 73, 74, 75, 76, 73, 74, 75, 76, 73, 74, 75, 76, 73, 74, 75, 76, 73, 74, 75, 76, 73, 74, 75, 76, 73, 74, 75, 76, 73, 74, 75, 76, 73, 74, 75, 76, 73, 74, 75, 76, 73, 74, 75, 76, 73, 74, 75, 76, 73, 74, 75, 76, 73, 74, 75, 76, 73, 74, 75, 76, 73, 74, 75, 76, 73, 74, 75, 76, 73, 74, 75, 76, 73, 74, 75, 76, 73, 74, 75, 76, 73, 74, 75, 76, 73, 74, 75, 76, 73, 74, 75, 76, 73, 74, 75, 76, 73, 74, 75, 76, 73, 74, 75, 76, 73, 74, 75, 76, 73, 74, 75, 76, 73, 74, 75, 76, 73, 74, 75, 76, 73, 74, 75, 76, 73, 74, 75, 76, 73, 74, 75, 76, 73, 74, 75, 76, 73, 74, 75, 76, 73, 74, 75, 76, 73, 74, 75, 76, 73, 74, 75, 76, 73, 74, 75, 76, 73, 74, 75, 76, 73, 74, 75, 76, 73, 74, 75, 76, 73, 74, 75, 76, 73, 74, 75, 76, 73, 74, 75, 76, 73, 74, 75, 76, 73, 74, 75, 76, 73, 74, 75, 76, 73, 74, 75, 76, 73, 74, 75, 76, 13, 14, 15, 16, 13, 14, 15, 16, 13, 14, 15, 16, 13, 14, 15, 16, 13, 14, 15, 16, 13, 14, 15, 16, 13, 14, 15, 16, 13, 14, 15, 16, 13, 14, 15, 16, 13, 14, 15, 16, 13, 14, 15, 16, 13, 14, 15, 16, 13, 14, 15, 16, 13, 14, 15, 16, 13, 14, 15, 16, 13, 14, 15, 16, 13, 14, 15, 16, 13, 14, 15, 16, 13, 14, 15, 16, 13, 14, 15, 16, 13, 14, 15, 16, 13, 14, 15, 16, 13, 14, 15, 16, 13, 14, 15, 16, 13, 14, 15, 16, 13, 14, 15, 16, 13, 14, 15, 16, 13, 14, 15, 16, 13, 14, 15, 16, 13, 14, 15, 16, 13, 14, 15, 16, 13, 14, 15, 16, 13, 14, 15, 16, 13, 14, 15, 16, 13, 14, 15, 16, 13, 14, 15, 16, 13, 14, 15, 16, 13, 14, 15, 16, 13, 14, 15, 16, 13, 14, 15, 16, 13, 14, 15, 16, 13, 14, 15, 16, 13, 14, 15, 16, 13, 14, 15, 16, 13, 14, 15, 16, 13, 14, 15, 16, 13, 14, 15, 16, 13, 14, 15, 16, 13, 14, 15, 16, 13, 14, 15, 16, 33, 34, 35, 36, 33, 34, 35, 36, 33, 34, 35, 36, 33, 34, 35, 36, 33, 34, 35, 36, 33, 34, 35, 36, 33, 34, 35, 36, 33, 34, 35, 36, 33, 34, 35, 36, 33, 34, 35, 36, 33, 34, 35, 36, 33, 34, 35, 36, 33, 34, 35, 36, 33, 34, 35, 36, 33, 34, 35, 36, 33, 34, 35, 36, 33, 34, 35, 36, 33, 34, 35, 36, 33, 34, 35, 36, 33, 34, 35, 36, 33, 34, 35, 36, 33, 34, 35, 36, 33, 34, 35, 36, 33, 34, 35, 36, 33, 34, 35, 36, 33, 34, 35, 36, 33, 34, 35, 36, 33, 34, 35, 36, 33, 34, 35, 36, 33, 34, 35, 36, 33, 34, 35, 36, 33, 34, 35, 36, 33, 34, 35, 36, 33, 34, 35, 36, 33, 34, 35, 36, 33, 34, 35, 36, 33, 34, 35, 36, 33, 34, 35, 36, 33, 34, 35, 36, 33, 34, 35, 36, 33, 34, 35, 36, 33, 34, 35, 36, 33, 34, 35, 36, 33, 34, 35, 36, 33, 34, 35, 36, 33, 34, 35, 36, 33, 34, 35, 36, 33, 34, 35, 36, 33, 34, 35, 36, 33, 34, 35, 36, 53, 54, 55, 56, 53, 54, 55, 56, 53, 54, 55, 56, 53, 54, 55, 56, 53, 54, 55, 56, 53, 54, 55, 56, 53, 54, 55, 56, 53, 54, 55, 56, 53, 54, 55, 56, 53, 54, 55, 56, 53, 54, 55, 56, 53, 54, 55, 56, 53, 54, 55, 56, 53, 54, 55, 56, 53, 54, 55, 56, 53, 54, 55, 56, 53, 54, 55, 56, 53, 54, 55, 56, 53, 54, 55, 56, 53, 54, 55, 56, 53, 54, 55, 56, 53, 54, 55, 56, 53, 54, 55, 56, 53, 54, 55, 56, 53, 54, 55, 56, 53, 54, 55, 56, 53, 54, 55, 56, 53, 54, 55, 56, 53, 54, 55, 56, 53, 54, 55, 56, 53, 54, 55, 56, 53, 54, 55, 56, 53, 54, 55, 56, 53, 54, 55, 56, 53, 54, 55, 56, 53, 54, 55, 56, 53, 54, 55, 56, 53, 54, 55, 56, 53, 54, 55, 56, 53, 54, 55, 56, 53, 54, 55, 56, 53, 54, 55, 56, 53, 54, 55, 56, 53, 54, 55, 56, 53, 54, 55, 56, 53, 54, 55, 56, 53, 54, 55, 56, 53, 54, 55, 56, 53, 54, 55, 56, 53, 54, 55, 56, 73, 74, 75, 76, 73, 74, 75, 76, 73, 74, 75, 76, 73, 74, 75, 76, 73, 74, 75, 76, 73, 74, 75, 76, 73, 74, 75, 76, 73, 74, 75, 76, 73, 74, 75, 76, 73, 74, 75, 76, 73, 74, 75, 76, 73, 74, 75, 76, 73, 74, 75, 76, 73, 74, 75, 76, 73, 74, 75, 76, 73, 74, 75, 76, 73, 74, 75, 76, 73, 74, 75, 76, 73, 74, 75, 76, 73, 74, 75, 76, 73, 74, 75, 76, 73, 74, 75, 76, 73, 74, 75, 76, 73, 74, 75, 76, 73, 74, 75, 76, 73, 74, 75, 76, 73, 74, 75, 76, 73, 74, 75, 76, 73, 74, 75, 76, 73, 74, 75, 76, 73, 74, 75, 76, 73, 74, 75, 76, 73, 74, 75, 76, 73, 74, 75, 76, 73, 74, 75, 76, 73, 74, 75, 76, 73, 74, 75, 76, 73, 74, 75, 76, 73, 74, 75, 76, 73, 74, 75, 76, 73, 74, 75, 76, 73, 74, 75, 76, 73, 74, 75, 76, 73, 74, 75, 76, 73, 74, 75, 76, 73, 74, 75, 76, 73, 74, 75, 76, 73, 74, 75, 76, 73, 74, 75, 76, 73, 74, 75, 76, 13, 14, 15, 16, 13, 14, 15, 16, 13, 14, 15, 16, 13, 14, 15, 16, 13, 14, 15, 16, 13, 14, 15, 16, 13, 14, 15, 16, 13, 14, 15, 16, 13, 14, 15, 16, 13, 14, 15, 16, 13, 14, 15, 16, 13, 14, 15, 16, 13, 14, 15, 16, 13, 14, 15, 16, 13, 14, 15, 16, 13, 14, 15, 16, 13, 14, 15, 16, 13, 14, 15, 16, 13, 14, 15, 16, 13, 14, 15, 16, 13, 14, 15, 16, 13, 14, 15, 16, 13, 14, 15, 16, 13, 14, 15, 16, 13, 14, 15, 16, 13, 14, 15, 16, 13, 14, 15, 16, 13, 14, 15, 16, 13, 14, 15, 16, 13, 14, 15, 16, 13, 14, 15, 16, 13, 14, 15, 16, 13, 14, 15, 16, 13, 14, 15, 16, 13, 14, 15, 16, 13, 14, 15, 16, 13, 14, 15, 16, 13, 14, 15, 16, 13, 14, 15, 16, 13, 14, 15, 16, 13, 14, 15, 16, 13, 14, 15, 16, 13, 14, 15, 16, 13, 14, 15, 16, 13, 14, 15, 16, 13, 14, 15, 16, 13, 14, 15, 16, 13, 14, 15, 16, 13, 14, 15, 16, 13, 14, 15, 16, 33, 34, 35, 36, 33, 34, 35, 36, 33, 34, 35, 36, 33, 34, 35, 36, 33, 34, 35, 36, 33, 34, 35, 36, 33, 34, 35, 36, 33, 34, 35, 36, 33, 34, 35, 36, 33, 34, 35, 36, 33, 34, 35, 36, 33, 34, 35, 36, 33, 34, 35, 36, 33, 34, 35, 36, 33, 34, 35, 36, 33, 34, 35, 36, 33, 34, 35, 36, 33, 34, 35, 36, 33, 34, 35, 36, 33, 34, 35, 36, 33, 34, 35, 36, 33, 34, 35, 36, 33, 34, 35, 36, 33, 34, 35, 36, 33, 34, 35, 36, 33, 34, 35, 36, 33, 34, 35, 36, 33, 34, 35, 36, 33, 34, 35, 36, 33, 34, 35, 36, 33, 34, 35, 36, 33, 34, 35, 36, 33, 34, 35, 36, 33, 34, 35, 36, 33, 34, 35, 36, 33, 34, 35, 36, 33, 34, 35, 36, 33, 34, 35, 36, 33, 34, 35, 36, 33, 34, 35, 36, 33, 34, 35, 36, 33, 34, 35, 36, 33, 34, 35, 36, 33, 34, 35, 36, 33, 34, 35, 36, 33, 34, 35, 36, 33, 34, 35, 36, 33, 34, 35, 36, 33, 34, 35, 36, 33, 34, 35, 36, 53, 54, 55, 56, 53, 54, 55, 56, 53, 54, 55, 56, 53, 54, 55, 56, 53, 54, 55, 56, 53, 54, 55, 56, 53, 54, 55, 56, 53, 54, 55, 56, 53, 54, 55, 56, 53, 54, 55, 56, 53, 54, 55, 56, 53, 54, 55, 56, 53, 54, 55, 56, 53, 54, 55, 56, 53, 54, 55, 56, 53, 54, 55, 56, 53, 54, 55, 56, 53, 54, 55, 56, 53, 54, 55, 56, 53, 54, 55, 56, 53, 54, 55, 56, 53, 54, 55, 56, 53, 54, 55, 56, 53, 54, 55, 56, 53, 54, 55, 56, 53, 54, 55, 56, 53, 54, 55, 56, 53, 54, 55, 56, 53, 54, 55, 56, 53, 54, 55, 56, 53, 54, 55, 56, 53, 54, 55, 56, 53, 54, 55, 56, 53, 54, 55, 56, 53, 54, 55, 56, 53, 54, 55, 56, 53, 54, 55, 56, 53, 54, 55, 56, 53, 54, 55, 56, 53, 54, 55, 56, 53, 54, 55, 56, 53, 54, 55, 56, 53, 54, 55, 56, 53, 54, 55, 56, 53, 54, 55, 56, 53, 54, 55, 56, 53, 54, 55, 56, 53, 54, 55, 56, 53, 54, 55, 56, 53, 54, 55, 56],
         "height":15,
         "id":1,
         "name":"Main",
         "opacity":1,
         "type":"tilelayer",
         "visible":true,
         "width":200,
         "x":0,
         "y":0
        }, 
        {
         "draworder":"topdown",
         "id":7,
         "name":"Player",
         "objects":[
                {
                 "height":0,
                 "id":46,
                 "name":"",
                 "point":true,
                 "rotation":0,
                 "type":"",
                 "visible":true,
                 "width":0,
                 "x":2000,
                 "y":216
                }],
         "opacity":1,
         "type":"objectgroup",
         "visible":true,
         "x":0,
         "y":0
        }, 
        {
         "draworder":"topdown",
         "id":2,
         "name":"Platforms",
         "objects":[],
         "opacity":1,
         "type":"objectgroup",
         "visible":true,
         "x":0,
         "y":0
        }, 
        {
         "draworder":"topdown",
         "id":3,
         "name":"Objects",
         "objects":[
                {
                 "gid":1962,
                 "height":226,
                 "id":16,
                 "name":"",
                 "rotation":0,
                 "type":"",
                 "visible":true,
                 "width":258,
                 "x":3007,
                 "y":213
                }, 
                {
                 "gid":1962,
                 "height":226,
                 "id":17,
                 "name":"",
                 "rotation":0,
                 "type":"",
                 "visible":true,
                 "width":258,
                 "x":2851,
                 "y":210.333333333333
                }, 
                {
                 "gid":1962,
                 "height":226,
                 "id":18,
                 "name":"",
                 "rotation":0,
                 "type":"",
                 "visible":true,
                 "width":258,
                 "x":2696.33333333333,
                 "y":209
                }, 
                {
                 "gid":1962,
                 "height":226,
                 "id":19,
                 "name":"",
                 "rotation":0,
                 "type":"",
                 "visible":true,
                 "width":258,
                 "x":2431.60606060606,
                 "y":197.848484848485
                }, 
                {
                 "gid":1962,
                 "height":226,
                 "id":20,
                 "name":"",
                 "rotation":0,
                 "type":"",
                 "visible":true,
                 "width":258,
                 "x":2516.45454545455,
                 "y":197.848484848485
                }, 
                {
                 "gid":1962,
                 "height":226,
                 "id":21,
                 "name":"",
                 "rotation":0,
                 "type":"",
                 "visible":true,
                 "width":258,
                 "x":2207.36363636364,
                 "y":197.848484848485
                }, 
                {
                 "gid":1962,
                 "height":226,
                 "id":22,
                 "name":"",
                 "rotation":0,
                 "type":"",
                 "visible":true,
                 "width":258,
                 "x":2019.48484848485,
                 "y":194.818181818182
                }, 
                {
                 "gid":1962,
                 "height":226,
                 "id":23,
                 "name":"",
                 "rotation":0,
                 "type":"",
                 "visible":true,
                 "width":258,
                 "x":1775,
                 "y":161
                }, 
                {
                 "gid":1962,
                 "height":226,
                 "id":24,
                 "name":"",
                 "rotation":0,
                 "type":"",
                 "visible":true,
                 "width":258,
                 "x":1487,
                 "y":113
                }, 
                {
                 "gid":1962,
                 "height":226,
                 "id":25,
                 "name":"",
                 "rotation":0,
                 "type":"",
                 "visible":true,
                 "width":258,
                 "x":1279,
                 "y":129
                }, 
                {
                 "gid":1962,
                 "height":226,
                 "id":26,
                 "name":"",
                 "rotation":0,
                 "type":"",
                 "visible":true,
                 "width":258,
                 "x":1023,
                 "y":113
                }, 
                {
                 "gid":1962,
                 "height":226,
                 "id":27,
                 "name":"",
                 "rotation":0,
                 "type":"",
                 "visible":true,
                 "width":258,
                 "x":815,
                 "y":97
                }, 
                {
                 "gid":1962,
                 "height":226,
                 "id":28,
                 "name":"",
                 "rotation":0,
                 "type":"",
                 "visible":true,
                 "width":258,
                 "x":543,
                 "y":81
                }, 
                {
                 "gid":1961,
                 "height":203,
                 "id":29,
                 "name":"",
                 "rotation":0,
                 "type":"",
                 "visible":true,
                 "width":456,
                 "x":699.272727272728,
                 "y":144.424242424242
                }, 
                {
                 "gid":1961,
                 "height":203,
                 "id":30,
                 "name":"",
                 "rotation":0,
                 "type":"",
                 "visible":true,
                 "width":456,
                 "x":1068.9696969697,
                 "y":171.69696969697
                }, 
                {
                 "gid":1961,
                 "height":203,
                 "id":31,
                 "name":"",
                 "rotation":0,
                 "type":"",
                 "visible":true,
                 "width":456,
                 "x":1499.27272727273,
                 "y":195.939393939394
                }, 
                {
                 "gid":1961,
                 "height":203,
                 "id":32,
                 "name":"",
                 "rotation":0,
                 "type":"",
                 "visible":true,
                 "width":456,
                 "x":1832.60606060606,
                 "y":223.212121212121
                }, 
                {
                 "gid":1962,
                 "height":226,
                 "id":33,
                 "name":"",
                 "rotation":0,
                 "type":"",
                 "visible":true,
                 "width":258,
                 "x":391,
                 "y":189
                }, 
                {
                 "gid":1962,
                 "height":226,
                 "id":34,
                 "name":"",
                 "rotation":0,
                 "type":"",
                 "visible":true,
                 "width":258,
                 "x":227,
                 "y":121
                }, 
                {
                 "gid":1962,
                 "height":226,
                 "id":35,
                 "name":"",
                 "rotation":0,
                 "type":"",
                 "visible":true,
                 "width":258,
                 "x":47,
                 "y":169
                }, 
                {
                 "gid":1963,
                 "height":294,
                 "id":36,
                 "name":"",
                 "rotation":0,
                 "type":"",
                 "visible":true,
                 "width":420,
                 "x":430,
                 "y":175
                }, 
                {
                 "gid":1963,
                 "height":294,
                 "id":37,
                 "name":"",
                 "rotation":0,
                 "type":"",
                 "visible":true,
                 "width":420,
                 "x":50,
                 "y":207
                }, 
                {
                 "gid":1963,
                 "height":294,
                 "id":38,
                 "name":"",
                 "rotation":0,
                 "type":"",
                 "visible":true,
                 "width":420,
                 "x":2162,
                 "y":163
                }, 
                {
                 "gid":1963,
                 "height":294,
                 "id":39,
                 "name":"",
                 "rotation":0,
                 "type":"",
                 "visible":true,
                 "width":420,
                 "x":-162,
                 "y":175
                }, 
                {
                 "gid":1963,
                 "height":294,
                 "id":44,
                 "name":"",
                 "rotation":0,
                 "type":"",
                 "visible":true,
                 "width":420,
                 "x":2892,
                 "y":131
                }, 
                {
                 "gid":1963,
                 "height":294,
                 "id":45,
                 "name":"",
                 "rotation":0,
                 "type":"",
                 "visible":true,
                 "width":420,
                 "x":2920,
                 "y":297
                }],
         "opacity":1,
         "type":"objectgroup",
         "visible":true,
         "x":0,
         "y":0
        }, 
        {
         "draworder":"topdown",
         "id":4,
         "name":"NPCs",
         "objects":[
                {
                 "height":0,
                 "id":40,
                 "name":"Moby",
                 "point":true,
                 "rotation":0,
                 "type":"",
                 "visible":true,
                 "width":0,
                 "x":1752,
                 "y":212
                }, 
                {
                 "height":0,
                 "id":41,
                 "name":"Moby",
                 "point":true,
                 "rotation":0,
                 "type":"",
                 "visible":true,
                 "width":0,
                 "x":989.333333333333,
                 "y":210.666666666667
                }],
         "opacity":1,
         "type":"objectgroup",
         "visible":true,
         "x":0,
         "y":0
        }, 
        {
         "data":[0, 0, 0, 0, 0, 0, 0, 0, 0, 0, 0, 0, 0, 0, 0, 0, 0, 0, 0, 0, 0, 0, 0, 0, 0, 0, 0, 0, 0, 0, 0, 0, 0, 0, 0, 0, 0, 0, 0, 0, 0, 0, 0, 0, 0, 0, 0, 0, 0, 0, 0, 0, 0, 0, 0, 0, 0, 0, 0, 0, 0, 0, 0, 0, 0, 0, 0, 0, 0, 0, 0, 0, 0, 0, 0, 0, 0, 0, 0, 0, 0, 0, 0, 0, 0, 0, 0, 0, 0, 0, 0, 0, 0, 0, 0, 0, 0, 0, 0, 0, 0, 0, 0, 0, 0, 0, 0, 0, 0, 0, 0, 0, 0, 0, 0, 0, 0, 0, 0, 0, 0, 0, 0, 0, 0, 0, 0, 0, 0, 0, 0, 0, 0, 0, 0, 0, 0, 0, 0, 0, 0, 0, 0, 0, 0, 0, 0, 0, 0, 0, 0, 0, 0, 0, 0, 0, 0, 0, 0, 0, 0, 0, 0, 0, 0, 0, 0, 0, 0, 0, 0, 0, 0, 0, 0, 0, 0, 0, 0, 0, 0, 0, 0, 0, 0, 0, 0, 0, 0, 0, 0, 0, 0, 0, 0, 0, 0, 0, 0, 0, 0, 0, 0, 0, 0, 0, 0, 0, 0, 0, 0, 0, 0, 0, 0, 0, 0, 0, 0, 0, 0, 0, 0, 0, 0, 0, 0, 0, 0, 0, 0, 0, 0, 0, 0, 0, 0, 0, 0, 0, 0, 0, 0, 0, 0, 0, 0, 0, 0, 0, 0, 0, 0, 0, 0, 0, 0, 0, 0, 0, 0, 0, 0, 0, 0, 0, 0, 0, 0, 0, 0, 0, 0, 0, 0, 0, 0, 0, 0, 0, 0, 0, 0, 0, 0, 0, 0, 0, 0, 0, 0, 0, 0, 0, 0, 0, 0, 0, 0, 0, 0, 0, 0, 0, 0, 0, 0, 0, 0, 0, 0, 0, 0, 0, 0, 0, 0, 0, 0, 0, 0, 0, 0, 0, 0, 0, 0, 0, 0, 0, 0, 0, 0, 0, 0, 0, 0, 0, 0, 0, 0, 0, 0, 0, 0, 0, 0, 0, 0, 0, 0, 0, 0, 0, 0, 0, 0, 0, 0, 0, 0, 0, 0, 0, 0, 0, 0, 0, 0, 0, 0, 0, 0, 0, 0, 0, 0, 0, 0, 0, 0, 0, 0, 0, 0, 0, 0, 0, 0, 0, 0, 0, 0, 0, 0, 0, 0, 0, 0, 0, 0, 0, 0, 0, 0, 0, 0, 0, 0, 0, 0, 0, 0, 0, 0, 0, 0, 0, 0, 0, 0, 0, 0, 0, 0, 0, 0, 0, 0, 0, 0, 0, 0, 0, 0, 0, 0, 0, 0, 0, 0, 0, 0, 0, 0, 0, 0, 0, 0, 0, 0, 0, 0, 0, 0, 0, 0, 0, 0, 0, 0, 0, 0, 0, 0, 0, 0, 0, 0, 0, 0, 0, 0, 0, 0, 0, 0, 0, 0, 0, 0, 0, 0, 0, 0, 0, 0, 0, 0, 0, 0, 0, 0, 0, 0, 0, 0, 0, 0, 0, 0, 0, 0, 0, 0, 0, 0, 0, 0, 0, 0, 0, 0, 0, 0, 0, 0, 0, 0, 0, 0, 0, 0, 0, 0, 0, 0, 0, 0, 0, 0, 0, 0, 0, 0, 0, 0, 0, 0, 0, 0, 0, 0, 0, 0, 0, 0, 0, 0, 0, 0, 0, 0, 0, 0, 0, 0, 0, 0, 0, 0, 0, 0, 0, 0, 0, 0, 0, 0, 0, 0, 0, 0, 0, 0, 0, 0, 0, 0, 0, 0, 0, 0, 0, 0, 0, 0, 0, 0, 0, 0, 0, 0, 0, 0, 0, 0, 0, 0, 0, 0, 0, 0, 0, 0, 0, 0, 0, 0, 0, 0, 0, 0, 0, 0, 0, 0, 0, 0, 0, 0, 0, 0, 0, 0, 0, 0, 0, 0, 0, 0, 0, 0, 0, 0, 0, 0, 0, 0, 0, 0, 0, 0, 0, 0, 0, 0, 0, 0, 0, 0, 0, 0, 0, 0, 0, 0, 0, 0, 0, 0, 0, 0, 0, 0, 0, 0, 0, 0, 0, 0, 0, 0, 0, 0, 0, 0, 0, 0, 0, 0, 0, 0, 0, 0, 0, 0, 0, 0, 0, 0, 0, 0, 0, 0, 0, 0, 0, 0, 0, 0, 0, 0, 0, 0, 0, 0, 0, 0, 0, 0, 0, 0, 0, 0, 0, 0, 0, 0, 0, 0, 0, 0, 0, 0, 0, 0, 0, 0, 0, 0, 0, 0, 0, 0, 0, 0, 0, 0, 0, 0, 0, 0, 0, 0, 0, 0, 0, 0, 0, 0, 0, 0, 0, 0, 0, 0, 0, 0, 0, 0, 0, 0, 0, 0, 0, 0, 0, 0, 0, 0, 0, 0, 0, 0, 0, 0, 0, 0, 0, 0, 0, 0, 0, 0, 0, 0, 0, 0, 0, 0, 0, 0, 0, 0, 0, 0, 0, 0, 0, 0, 0, 0, 0, 0, 0, 0, 0, 0, 0, 0, 0, 0, 0, 0, 0, 0, 0, 0, 0, 0, 0, 0, 0, 0, 0, 0, 0, 0, 0, 0, 0, 0, 0, 0, 0, 0, 0, 0, 0, 0, 0, 0, 0, 0, 0, 0, 0, 0, 0, 0, 0, 0, 0, 0, 0, 0, 0, 0, 0, 0, 0, 0, 0, 0, 0, 0, 0, 0, 0, 0, 0, 0, 0, 0, 0, 0, 0, 0, 0, 0, 0, 0, 0, 0, 0, 0, 0, 0, 0, 0, 0, 0, 0, 0, 0, 0, 0, 0, 0, 0, 0, 0, 0, 0, 0, 0, 0, 0, 0, 0, 0, 0, 0, 0, 0, 0, 0, 0, 0, 0, 0, 0, 0, 0, 0, 0, 0, 0, 0, 0, 0, 0, 0, 0, 0, 0, 0, 0, 0, 0, 0, 0, 0, 0, 0, 0, 0, 0, 0, 0, 0, 0, 0, 0, 0, 0, 0, 0, 0, 0, 0, 0, 0, 0, 0, 0, 0, 0, 0, 0, 0, 0, 0, 0, 0, 0, 0, 0, 0, 0, 0, 0, 0, 0, 0, 0, 0, 0, 0, 0, 0, 0, 0, 0, 0, 0, 0, 0, 0, 0, 0, 0, 0, 0, 0, 0, 0, 0, 0, 0, 0, 0, 0, 0, 0, 0, 0, 0, 0, 0, 0, 0, 0, 0, 0, 0, 0, 0, 0, 0, 0, 0, 0, 0, 0, 0, 0, 0, 0, 0, 0, 0, 0, 0, 0, 0, 0, 0, 0, 0, 0, 0, 0, 0, 0, 0, 0, 0, 0, 0, 0, 0, 0, 0, 0, 0, 0, 0, 0, 0, 0, 0, 0, 0, 0, 0, 0, 0, 0, 0, 0, 0, 0, 0, 0, 0, 0, 0, 0, 0, 0, 0, 0, 0, 0, 0, 0, 0, 0, 0, 0, 0, 0, 0, 0, 0, 0, 0, 0, 0, 0, 0, 0, 0, 0, 0, 0, 0, 0, 0, 0, 0, 0, 0, 0, 0, 0, 0, 0, 0, 0, 0, 0, 0, 0, 0, 0, 0, 0, 0, 0, 0, 0, 0, 0, 0, 0, 0, 0, 0, 0, 0, 0, 0, 0, 0, 0, 0, 0, 0, 0, 0, 0, 0, 0, 0, 0, 0, 0, 0, 0, 0, 0, 0, 0, 0, 0, 0, 0, 0, 0, 0, 0, 0, 0, 0, 0, 0, 0, 0, 0, 0, 0, 0, 0, 0, 0, 0, 0, 0, 0, 0, 0, 0, 0, 0, 0, 0, 0, 0, 0, 0, 0, 0, 0, 0, 0, 0, 794, 795, 796, 0, 0, 0, 0, 0, 0, 0, 0, 0, 0, 0, 0, 0, 0, 0, 0, 0, 0, 0, 0, 0, 0, 0, 0, 0, 0, 0, 0, 0, 0, 0, 0, 0, 0, 0, 0, 0, 0, 0, 0, 0, 794, 795, 796, 0, 0, 0, 0, 0, 0, 0, 0, 0, 0, 0, 0, 0, 0, 0, 0, 0, 0, 0, 0, 0, 0, 0, 0, 0, 0, 0, 0, 0, 0, 0, 0, 0, 0, 0, 0, 0, 0, 0, 0, 0, 0, 0, 0, 0, 0, 0, 0, 0, 0, 0, 0, 0, 0, 0, 0, 0, 0, 0, 0, 0, 0, 0, 0, 0, 0, 0, 0, 0, 0, 0, 0, 0, 0, 0, 0, 0, 0, 0, 0, 0, 0, 0, 0, 0, 0, 0, 0, 0, 0, 0, 0, 0, 0, 0, 0, 0, 0, 0, 0, 0, 0, 0, 0, 0, 0, 0, 0, 0, 0, 0, 0, 0, 0, 0, 0, 0, 0, 0, 0, 0, 0, 0, 0, 0, 0, 0, 0, 0, 0, 0, 0, 0, 0, 0, 0, 0, 0, 0, 0, 0, 0, 0, 0, 0, 0, 0, 0, 0, 0, 0, 0, 0, 814, 815, 816, 0, 0, 0, 0, 0, 0, 0, 0, 0, 0, 0, 0, 0, 0, 0, 0, 0, 0, 0, 0, 0, 0, 0, 0, 0, 0, 0, 0, 0, 0, 0, 0, 0, 0, 0, 0, 0, 0, 0, 0, 0, 814, 815, 816, 0, 0, 0, 0, 0, 0, 0, 0, 0, 0, 0, 0, 0, 0, 0, 0, 0, 0, 0, 0, 0, 0, 0, 0, 0, 0, 0, 0, 0, 0, 0, 0, 0, 0, 0, 0, 0, 0, 0, 0, 0, 0, 0, 0, 0, 0, 0, 0, 0, 0, 0, 0, 0, 0, 0, 0, 0, 0, 0, 0, 0, 0, 0, 0, 0, 0, 0, 0, 0, 0, 0, 0, 0, 0, 0, 0, 0, 0, 0, 0, 0, 0, 0, 0, 0, 0, 0, 0, 0, 0, 0, 0, 0, 0, 0, 0, 0, 0, 0, 0, 0, 0, 0, 0, 0, 0, 0, 0, 0, 0, 0, 0, 0, 0, 0, 0, 0, 0, 0, 0, 0, 0, 0, 0, 0, 0, 0, 0, 0, 0, 0, 0, 0, 0, 0, 0, 0, 0, 0, 0, 0, 0, 0, 0, 0, 0, 0, 0, 0, 0, 0, 0, 0, 834, 835, 836, 0, 0, 0, 0, 0, 0, 0, 0, 0, 0, 0, 0, 0, 0, 0, 0, 0, 0, 0, 0, 0, 0, 0, 0, 0, 0, 0, 0, 0, 0, 0, 0, 0, 0, 0, 0, 0, 0, 0, 0, 0, 834, 835, 836, 0, 0, 0, 0, 0, 0, 0, 0, 0, 0, 0, 0, 0, 0, 0, 0, 0, 0, 0, 0, 0, 0, 0, 0, 0, 0, 0, 0, 0, 0, 0, 0, 0, 0, 0, 0, 0, 0, 0, 0, 0, 0, 0, 0, 0, 0, 0, 0, 0, 0, 0, 0, 0, 0, 0, 0, 0, 0, 0, 0, 0, 0, 0, 0, 0, 0, 0, 0, 0, 0, 0, 0, 0, 0, 0, 0, 0, 0, 0, 794, 795, 796, 0, 0, 0, 0, 0, 0, 0, 0, 0, 0, 0, 0, 0, 0, 0, 0, 0, 0, 0, 0, 0, 0, 0, 0, 0, 794, 795, 796, 0, 0, 0, 0, 0, 0, 0, 0, 0, 0, 0, 0, 0, 0, 0, 0, 0, 0, 0, 0, 0, 0, 0, 0, 0, 0, 0, 0, 0, 0, 0, 0, 0, 0, 0, 0, 0, 0, 0, 0, 0, 0, 0, 854, 855, 856, 0, 0, 0, 0, 0, 0, 0, 794, 795, 796, 0, 0, 0, 0, 0, 0, 0, 0, 0, 0, 0, 0, 0, 0, 0, 0, 0, 0, 0, 0, 0, 0, 0, 0, 0, 0, 0, 0, 0, 0, 0, 854, 855, 856, 0, 0, 0, 0, 0, 0, 0, 0, 0, 0, 0, 0, 0, 0, 0, 0, 0, 794, 795, 796, 0, 0, 0, 0, 0, 0, 0, 0, 0, 0, 0, 0, 0, 0, 0, 0, 0, 0, 0, 0, 0, 0, 0, 0, 0, 0, 0, 0, 0, 0, 0, 0, 0, 0, 0, 0, 0, 0, 0, 0, 0, 0, 0, 0, 0, 0, 0, 0, 0, 0, 0, 0, 0, 0, 0, 0, 0, 0, 0, 814, 815, 816, 0, 0, 0, 0, 0, 0, 0, 0, 0, 0, 0, 0, 0, 0, 0, 0, 0, 0, 0, 0, 0, 0, 0, 0, 0, 814, 815, 816, 0, 0, 0, 0, 0, 0, 0, 0, 0, 0, 0, 0, 794, 795, 796, 0, 0, 0, 0, 0, 0, 0, 0, 0, 0, 0, 0, 0, 0, 0, 0, 0, 0, 0, 0, 0, 0, 0, 0, 0, 0, 0, 0, 874, 875, 876, 0, 0, 0, 0, 0, 0, 0, 814, 815, 816, 0, 0, 0, 0, 0, 0, 0, 0, 0, 0, 0, 0, 0, 0, 0, 0, 0, 0, 0, 0, 0, 0, 0, 0, 0, 0, 0, 0, 0, 0, 0, 874, 875, 876, 0, 0, 0, 0, 0, 0, 0, 0, 0, 0, 0, 0, 0, 0, 0, 0, 0, 814, 815, 816, 0, 0, 0, 0, 0, 0, 0, 0, 0, 0, 0, 0, 0, 0, 0, 0, 0, 0, 0, 0, 0, 0, 0, 0, 0, 0, 0, 0, 794, 795, 796, 0, 0, 0, 0, 0, 0, 0, 0, 0, 0, 0, 0, 0, 0, 0, 0, 0, 0, 0, 0, 0, 0, 0, 0, 0, 0, 0, 0, 834, 835, 836, 0, 0, 0, 0, 0, 0, 0, 0, 794, 795, 796, 0, 0, 0, 0, 0, 0, 0, 0, 0, 0, 0, 0, 0, 0, 834, 835, 836, 0, 0, 0, 0, 0, 0, 0, 0, 0, 0, 0, 0, 814, 815, 816, 0, 0, 0, 0, 0, 0, 0, 0, 0, 0, 0, 0, 0, 0, 0, 0, 0, 0, 0, 0, 0, 0, 0, 0, 0, 0, 0, 0, 894, 895, 896, 0, 0, 0, 0, 0, 0, 0, 834, 835, 836, 0, 0, 0, 0, 0, 0, 0, 0, 0, 0, 0, 0, 0, 0, 0, 0, 0, 0, 0, 0, 0, 0, 0, 0, 0, 0, 0, 0, 0, 0, 0, 894, 895, 896, 0, 0, 0, 0, 0, 0, 0, 0, 0, 0, 0, 0, 0, 0, 0, 0, 0, 834, 835, 836, 0, 0, 0, 0, 0, 0, 0, 0, 0, 0, 0, 0, 0, 0, 0, 0, 0, 0, 0, 0, 0, 0, 0, 0, 0, 0, 0, 0, 814, 815, 816, 0, 0, 0, 0, 0, 0, 0, 0, 0, 0, 0, 0, 0, 0, 0, 0, 0, 0, 0, 0, 0, 0, 0, 0, 0, 0, 0, 0, 854, 855, 856, 0, 0, 0, 0, 0, 0, 0, 0, 814, 815, 816, 0, 0, 0, 0, 0, 0, 0, 0, 0, 0, 0, 0, 0, 0, 854, 855, 856, 0, 0, 0, 0, 0, 0, 0, 0, 0, 0, 0, 0, 834, 835, 836, 0, 0, 0, 0, 0, 0, 0, 0, 0, 0, 0, 0, 0, 0, 0, 0, 0, 0, 0, 0, 0, 0, 0, 0, 0, 0, 0, 0, 0, 0, 0, 0, 0, 0, 0, 0, 0, 0, 854, 855, 856, 0, 0, 0, 0, 0, 0, 0, 0, 0, 0, 0, 0, 0, 0, 0, 0, 0, 0, 0, 0, 0, 0, 0, 0, 0, 0, 0, 0, 0, 0, 0, 0, 0, 0, 0, 0, 0, 0, 0, 0, 0, 0, 0, 0, 0, 0, 0, 0, 0, 0, 0, 854, 855, 856, 0, 0, 0, 0, 0, 0, 0, 0, 0, 0, 0, 0, 0, 0, 0, 0, 0, 0, 0, 0, 0, 0, 0, 0, 0, 0, 0, 0, 834, 835, 836, 0, 0, 0, 0, 0, 0, 0, 0, 0, 0, 0, 0, 0, 0, 0, 0, 0, 0, 0, 0, 0, 0, 0, 0, 0, 0, 0, 0, 874, 875, 876, 0, 0, 0, 0, 0, 0, 0, 0, 834, 835, 836, 0, 0, 0, 0, 0, 0, 0, 0, 0, 0, 0, 0, 0, 0, 874, 875, 876, 0, 0, 0, 0, 0, 0, 0, 0, 0, 0, 0, 0, 854, 855, 856, 0, 0, 0, 0, 0, 0, 0, 0, 0, 0, 0, 0, 0, 0, 0, 0, 0, 0, 0, 0, 0, 0, 0, 0, 0, 0, 0, 0, 0, 0, 0, 0, 0, 0, 0, 0, 0, 0, 874, 875, 876, 0, 0, 0, 0, 0, 0, 0, 0, 0, 0, 0, 0, 0, 0, 0, 0, 0, 0, 0, 0, 0, 0, 0, 0, 0, 0, 0, 0, 0, 0, 0, 0, 0, 0, 0, 0, 0, 0, 0, 0, 0, 0, 0, 0, 0, 0, 0, 0, 0, 0, 0, 874, 875, 876, 0, 0, 0, 0, 0, 0, 0, 0, 0, 0, 0, 0, 0, 0, 0, 0, 0, 0, 0, 0, 0, 0, 0, 0, 0, 0, 0, 0, 854, 855, 856, 0, 0, 0, 0, 0, 0, 0, 0, 0, 0, 0, 0, 0, 0, 0, 0, 0, 0, 0, 0, 0, 0, 0, 0, 0, 0, 0, 0, 894, 895, 896, 0, 0, 0, 0, 0, 0, 0, 0, 854, 855, 856, 0, 0, 0, 0, 0, 0, 0, 0, 0, 0, 0, 0, 0, 0, 894, 895, 896, 0, 0, 0, 0, 0, 0, 0, 0, 0, 0, 0, 0, 874, 875, 876, 0, 0, 0, 0, 0, 0, 0, 0, 0, 0, 0, 0, 0, 0, 0, 0, 0, 0, 0, 0, 0, 0, 0, 0, 0, 0, 0, 0, 0, 0, 0, 0, 0, 0, 0, 0, 0, 0, 894, 895, 896, 0, 0, 0, 0, 0, 0, 0, 0, 0, 0, 0, 0, 0, 0, 0, 0, 0, 0, 0, 0, 0, 0, 0, 0, 0, 0, 0, 0, 0, 0, 0, 0, 0, 0, 0, 0, 0, 0, 0, 0, 0, 0, 0, 0, 0, 0, 0, 0, 0, 0, 0, 894, 895, 896, 0, 0, 0, 0, 0, 0, 0, 0, 0, 0, 0, 0, 0, 0, 0, 0, 0, 0, 0, 0, 0, 0, 0, 0, 0, 0, 0, 0, 874, 875, 876, 0, 0, 0, 0, 0, 0, 0, 0, 0, 0, 0, 0, 0, 0, 0, 0, 0, 0, 0, 0, 0, 0, 0, 0, 0, 0, 0, 0, 0, 0, 0, 0, 0, 0, 0, 0, 0, 0, 0, 874, 875, 876, 0, 0, 0, 0, 0, 0, 0, 0, 0, 0, 0, 0, 0, 0, 0, 0, 0, 0, 0, 0, 0, 0, 0, 0, 0, 0, 0, 0, 0, 894, 895, 896, 0, 0, 0, 0, 0, 0, 0, 0, 0],
         "height":15,
         "id":6,
         "name":"Above",
         "opacity":1,
         "type":"tilelayer",
         "visible":true,
         "width":200,
         "x":0,
         "y":0
        }],
 "nextlayerid":8,
 "nextobjectid":47,
 "orientation":"orthogonal",
 "renderorder":"right-down",
 "tiledversion":"1.4.3",
 "tileheight":16,
 "tilesets":[
        {
         "columns":20,
         "firstgid":1,
         "image":"..\/tilesets\/browserquestextrude.png",
         "imageheight":1764,
         "imagewidth":360,
         "margin":1,
         "name":"browserquestextrude",
         "spacing":2,
         "tilecount":1960,
         "tileheight":16,
         "tiles":[
                {
                 "id":874,
                 "properties":[
                        {
                         "name":"collides",
                         "type":"bool",
                         "value":true
                        }]
                }],
         "tilewidth":16
        }, 
        {
         "columns":0,
         "firstgid":1961,
         "grid":
            {
             "height":1,
             "orientation":"orthogonal",
             "width":1
            },
         "margin":0,
         "name":"ext_images",
         "spacing":0,
         "tilecount":4,
         "tileheight":294,
         "tiles":[
                {
                 "id":0,
                 "image":"..\/images\/canyon2.png",
                 "imageheight":203,
                 "imagewidth":456
                }, 
                {
                 "id":1,
                 "image":"..\/images\/canyon3.png",
                 "imageheight":226,
                 "imagewidth":258
                }, 
                {
                 "id":2,
                 "image":"..\/images\/canyon_corner.png",
                 "imageheight":294,
                 "imagewidth":420
                }, 
                {
                 "id":3,
                 "image":"..\/spritesheets\/shinyrock2.png",
                 "imageheight":53,
                 "imagewidth":48
                }],
         "tilewidth":456
        }],
 "tilewidth":16,
 "type":"map",
 "version":1.4,
 "width":200
}