info face="Press Start 2P" size=32 bold=0 italic=0 charset="" unicode=1 stretchH=0 smooth=0 aa=1 padding=0,0,0,0 spacing=0,0 outline=0
common lineHeight=32 base=32 scaleW=256 scaleH=256 pages=1 packed=0 alphaChnl=0 redChnl=0 greenChnl=0 blueChnl=0
page id=0 file="font_0.png"
chars count=95
char id=32 x=0 y=0 width=0 height=0 xoffset=0 yoffset=0 xadvance=32 page=0 chnl=15
char id=33 x=244 y=104 width=12 height=28 xoffset=8 yoffset=0 xadvance=32 page=0 chnl=15
char id=34 x=136 y=196 width=20 height=12 xoffset=4 yoffset=0 xadvance=32 page=0 chnl=15
char id=35 x=0 y=0 width=28 height=28 xoffset=0 yoffset=0 xadvance=32 page=0 chnl=15
char id=36 x=0 y=28 width=28 height=28 xoffset=0 yoffset=0 xadvance=32 page=0 chnl=15
char id=37 x=0 y=56 width=28 height=28 xoffset=0 yoffset=0 xadvance=32 page=0 chnl=15
char id=38 x=0 y=84 width=28 height=28 xoffset=0 yoffset=0 xadvance=32 page=0 chnl=15
char id=39 x=164 y=200 width=8 height=12 xoffset=8 yoffset=0 xadvance=32 page=0 chnl=15
char id=40 x=180 y=84 width=16 height=28 xoffset=8 yoffset=0 xadvance=32 page=0 chnl=15
char id=41 x=140 y=140 width=16 height=28 xoffset=4 yoffset=0 xadvance=32 page=0 chnl=15
char id=42 x=196 y=132 width=28 height=20 xoffset=0 yoffset=4 xadvance=32 page=0 chnl=15
char id=43 x=172 y=168 width=24 height=20 xoffset=4 yoffset=4 xadvance=32 page=0 chnl=15
char id=44 x=132 y=216 width=12 height=12 xoffset=4 yoffset=20 xadvance=32 page=0 chnl=15
char id=45 x=28 y=252 width=24 height=4 xoffset=4 yoffset=12 xadvance=32 page=0 chnl=15
char id=46 x=144 y=216 width=8 height=8 xoffset=8 yoffset=20 xadvance=32 page=0 chnl=15
char id=47 x=0 y=112 width=28 height=28 xoffset=0 yoffset=0 xadvance=32 page=0 chnl=15
char id=48 x=0 y=140 width=28 height=28 xoffset=0 yoffset=0 xadvance=32 page=0 chnl=15
char id=49 x=84 y=84 width=24 height=28 xoffset=4 yoffset=0 xadvance=32 page=0 chnl=15
char id=50 x=0 y=168 width=28 height=28 xoffset=0 yoffset=0 xadvance=32 page=0 chnl=15
char id=51 x=0 y=196 width=28 height=28 xoffset=0 yoffset=0 xadvance=32 page=0 chnl=15
char id=52 x=0 y=224 width=28 height=28 xoffset=0 yoffset=0 xadvance=32 page=0 chnl=15
char id=53 x=28 y=0 width=28 height=28 xoffset=0 yoffset=0 xadvance=32 page=0 chnl=15
char id=54 x=56 y=0 width=28 height=28 xoffset=0 yoffset=0 xadvance=32 page=0 chnl=15
char id=55 x=84 y=0 width=28 height=28 xoffset=0 yoffset=0 xadvance=32 page=0 chnl=15
char id=56 x=112 y=0 width=28 height=28 xoffset=0 yoffset=0 xadvance=32 page=0 chnl=15
char id=57 x=140 y=0 width=28 height=28 xoffset=0 yoffset=0 xadvance=32 page=0 chnl=15
char id=58 x=156 y=200 width=8 height=20 xoffset=8 yoffset=4 xadvance=32 page=0 chnl=15
char id=59 x=124 y=180 width=12 height=24 xoffset=4 yoffset=4 xadvance=32 page=0 chnl=15
char id=60 x=176 y=112 width=20 height=28 xoffset=4 yoffset=0 xadvance=32 page=0 chnl=15
char id=61 x=84 y=208 width=28 height=12 xoffset=0 yoffset=8 xadvance=32 page=0 chnl=15
char id=62 x=176 y=140 width=20 height=28 xoffset=4 yoffset=0 xadvance=32 page=0 chnl=15
char id=63 x=168 y=0 width=28 height=28 xoffset=0 yoffset=0 xadvance=32 page=0 chnl=15
char id=64 x=196 y=0 width=28 height=28 xoffset=0 yoffset=0 xadvance=32 page=0 chnl=15
char id=65 x=224 y=0 width=28 height=28 xoffset=0 yoffset=0 xadvance=32 page=0 chnl=15
char id=66 x=28 y=28 width=28 height=28 xoffset=0 yoffset=0 xadvance=32 page=0 chnl=15
char id=67 x=28 y=56 width=28 height=28 xoffset=0 yoffset=0 xadvance=32 page=0 chnl=15
char id=68 x=28 y=84 width=28 height=28 xoffset=0 yoffset=0 xadvance=32 page=0 chnl=15
char id=69 x=28 y=112 width=28 height=28 xoffset=0 yoffset=0 xadvance=32 page=0 chnl=15
char id=70 x=28 y=140 width=28 height=28 xoffset=0 yoffset=0 xadvance=32 page=0 chnl=15
char id=71 x=28 y=168 width=28 height=28 xoffset=0 yoffset=0 xadvance=32 page=0 chnl=15
char id=72 x=28 y=196 width=28 height=28 xoffset=0 yoffset=0 xadvance=32 page=0 chnl=15
char id=73 x=108 y=84 width=24 height=28 xoffset=4 yoffset=0 xadvance=32 page=0 chnl=15
char id=74 x=28 y=224 width=28 height=28 xoffset=0 yoffset=0 xadvance=32 page=0 chnl=15
char id=75 x=56 y=28 width=28 height=28 xoffset=0 yoffset=0 xadvance=32 page=0 chnl=15
char id=76 x=132 y=84 width=24 height=28 xoffset=4 yoffset=0 xadvance=32 page=0 chnl=15
char id=77 x=84 y=28 width=28 height=28 xoffset=0 yoffset=0 xadvance=32 page=0 chnl=15
char id=78 x=112 y=28 width=28 height=28 xoffset=0 yoffset=0 xadvance=32 page=0 chnl=15
char id=79 x=140 y=28 width=28 height=28 xoffset=0 yoffset=0 xadvance=32 page=0 chnl=15
char id=80 x=168 y=28 width=28 height=28 xoffset=0 yoffset=0 xadvance=32 page=0 chnl=15
char id=81 x=196 y=28 width=28 height=28 xoffset=0 yoffset=0 xadvance=32 page=0 chnl=15
char id=82 x=224 y=28 width=28 height=28 xoffset=0 yoffset=0 xadvance=32 page=0 chnl=15
char id=83 x=56 y=56 width=28 height=28 xoffset=0 yoffset=0 xadvance=32 page=0 chnl=15
char id=84 x=156 y=84 width=24 height=28 xoffset=4 yoffset=0 xadvance=32 page=0 chnl=15
char id=85 x=56 y=84 width=28 height=28 xoffset=0 yoffset=0 xadvance=32 page=0 chnl=15
char id=86 x=56 y=112 width=28 height=28 xoffset=0 yoffset=0 xadvance=32 page=0 chnl=15
char id=87 x=56 y=140 width=28 height=28 xoffset=0 yoffset=0 xadvance=32 page=0 chnl=15
char id=88 x=56 y=168 width=28 height=28 xoffset=0 yoffset=0 xadvance=32 page=0 chnl=15
char id=89 x=196 y=104 width=24 height=28 xoffset=4 yoffset=0 xadvance=32 page=0 chnl=15
char id=90 x=56 y=196 width=28 height=28 xoffset=0 yoffset=0 xadvance=32 page=0 chnl=15
char id=91 x=156 y=144 width=16 height=28 xoffset=8 yoffset=0 xadvance=32 page=0 chnl=15
char id=92 x=56 y=224 width=28 height=28 xoffset=0 yoffset=0 xadvance=32 page=0 chnl=15
char id=93 x=140 y=168 width=16 height=28 xoffset=4 yoffset=0 xadvance=32 page=0 chnl=15
char id=94 x=132 y=208 width=20 height=8 xoffset=4 yoffset=0 xadvance=32 page=0 chnl=15
char id=95 x=0 y=252 width=28 height=4 xoffset=0 yoffset=28 xadvance=32 page=0 chnl=15
char id=96 x=172 y=208 width=8 height=8 xoffset=12 yoffset=0 xadvance=32 page=0 chnl=15
char id=97 x=224 y=132 width=28 height=20 xoffset=0 yoffset=8 xadvance=32 page=0 chnl=15
char id=98 x=84 y=56 width=28 height=28 xoffset=0 yoffset=0 xadvance=32 page=0 chnl=15
char id=99 x=196 y=152 width=28 height=20 xoffset=0 yoffset=8 xadvance=32 page=0 chnl=15
char id=100 x=112 y=56 width=28 height=28 xoffset=0 yoffset=0 xadvance=32 page=0 chnl=15
char id=101 x=224 y=152 width=28 height=20 xoffset=0 yoffset=8 xadvance=32 page=0 chnl=15
char id=102 x=220 y=104 width=24 height=28 xoffset=4 yoffset=0 xadvance=32 page=0 chnl=15
char id=103 x=196 y=56 width=28 height=24 xoffset=0 yoffset=8 xadvance=32 page=0 chnl=15
char id=104 x=140 y=56 width=28 height=28 xoffset=0 yoffset=0 xadvance=32 page=0 chnl=15
char id=105 x=84 y=112 width=24 height=28 xoffset=4 yoffset=0 xadvance=32 page=0 chnl=15
char id=106 x=156 y=112 width=20 height=32 xoffset=4 yoffset=0 xadvance=32 page=0 chnl=15
char id=107 x=168 y=56 width=28 height=28 xoffset=0 yoffset=0 xadvance=32 page=0 chnl=15
char id=108 x=108 y=112 width=24 height=28 xoffset=4 yoffset=0 xadvance=32 page=0 chnl=15
char id=109 x=84 y=140 width=28 height=20 xoffset=0 yoffset=8 xadvance=32 page=0 chnl=15
char id=110 x=112 y=140 width=28 height=20 xoffset=0 yoffset=8 xadvance=32 page=0 chnl=15
char id=111 x=196 y=172 width=28 height=20 xoffset=0 yoffset=8 xadvance=32 page=0 chnl=15
char id=112 x=224 y=56 width=28 height=24 xoffset=0 yoffset=8 xadvance=32 page=0 chnl=15
char id=113 x=196 y=80 width=28 height=24 xoffset=0 yoffset=8 xadvance=32 page=0 chnl=15
char id=114 x=172 y=188 width=24 height=20 xoffset=4 yoffset=8 xadvance=32 page=0 chnl=15
char id=115 x=224 y=172 width=28 height=20 xoffset=0 yoffset=8 xadvance=32 page=0 chnl=15
char id=116 x=132 y=112 width=24 height=28 xoffset=4 yoffset=0 xadvance=32 page=0 chnl=15
char id=117 x=84 y=160 width=28 height=20 xoffset=0 yoffset=8 xadvance=32 page=0 chnl=15
char id=118 x=84 y=180 width=24 height=20 xoffset=4 yoffset=8 xadvance=32 page=0 chnl=15
char id=119 x=112 y=160 width=28 height=20 xoffset=0 yoffset=8 xadvance=32 page=0 chnl=15
char id=120 x=196 y=192 width=28 height=20 xoffset=0 yoffset=8 xadvance=32 page=0 chnl=15
char id=121 x=224 y=80 width=28 height=24 xoffset=0 yoffset=8 xadvance=32 page=0 chnl=15
char id=122 x=224 y=192 width=28 height=20 xoffset=0 yoffset=8 xadvance=32 page=0 chnl=15
char id=123 x=156 y=172 width=16 height=28 xoffset=8 yoffset=0 xadvance=32 page=0 chnl=15
char id=124 x=124 y=204 width=8 height=28 xoffset=12 yoffset=0 xadvance=32 page=0 chnl=15
char id=125 x=108 y=180 width=16 height=28 xoffset=4 yoffset=0 xadvance=32 page=0 chnl=15
char id=126 x=84 y=220 width=28 height=12 xoffset=0 yoffset=8 xadvance=32 page=0 chnl=15
kernings count=0
